Checking MZ difference model
…
    id = rep(1:2, n/2),
    g1 = rbinom(n/2, 2, 0.4) %>% rep(., each=2),
    g2 = rbinom(n/2, 2, 0.4) %>% rep(., each=2),
    g3 = rbinom(n/2, 2, 0.4) %>% rep(., each=2),
    g4 = rbinom(n/2, 2, 0.4) %>% rep(., each=2),
    f = rnorm(n),
    v = rnorm(n, 0, g3),
    y = 10 + g1 + f + f * drop(scale(g2)) + v + rnorm(n),
    yr = round(y),
    cc = rbinom(n, 1, plogis(-2 + y)),
    cs = drop(scale(cc))
)
dat

# A tibble: 100,000 × 12
     fid    id    g1    g2    g3    g4      f       v     y    yr    cc     cs
   <int> <int> <int> <int> <int> <int>  <dbl>   <dbl> <dbl> <dbl> <int>  <dbl>
 1     1     1     1     0     0     2 -0.691  0      10.7     11     1 0.0490
 2     1     2     1     0     0     2 -0.381  0      10.7     11     1 0.0490
 3     2     1     2     0     0     0  0.319  0      11.9     12     1 0.0490
 4     2     2     2     0     0     0 -0.416  0      12.8     13     1 0.0490
 5     3     1     1     0     1     1  0.931 -0.977  10.2     10     1 0.0490
 6     3     2     1     0     1     1 -0.484 -0.0960 11.2     11     1 0.0490
 7     4     1     1     0     1     1 -0.665  0.685  11.8     12     1 0.0490
 8     4     2     1     0     1     1  0.361 -1.54    8.90     9     1 0.0490
 9     5     1     1     1     0     0  0.842  0      10.8     11     1 0.0490
10     5     2     1     1     0     0 -1.32   0       9.91    10     1 0.0490
# ℹ 99,990 more rows
…
        g4 = g4[1], 
        y2 = (y[1]+y[2])^2,
        y = y[1]-y[2], 
        yrabs = abs(yr[1]-yr[2]), 
        yabs=abs(y), 
        cc=cc[1]-cc[2], 
        cm = mean(cc),
        ccabs=abs(cc),
        cs2=(cs[1]-cs[2])^2,
        cs=cs[1]-cs[2], 
        csabs=abs(cs)
    )
dat2

# A tibble: 50,000 × 15
     fid    g1    g2    g3    g4    y2       y yrabs   yabs    cc    cm ccabs
   <int> <int> <int> <int> <int> <dbl>   <dbl> <dbl>  <dbl> <int> <dbl> <int>
 1     1     1     0     0     2  459.  0.0299     0 0.0299     0     0     0
 2     2     2     0     0     0  611. -0.816      1 0.816      0     0     0
 3     3     1     0     1     1  459. -1.02       1 1.02       0     0     0
 4     4     1     0     1     1  429.  2.90       3 2.90       0     0     0
 5     5     1     1     0     0  429.  0.904      1 0.904      0     0     0
 6     6     1     0     2     1  435. -3.17       3 3.17       0     0     0
 7     7     2     0     0     0  516.  2.38       3 2.38       0     0     0
 8     8     0     1     1     1  569. -3.67       4 3.67       0     0     0
 9     9     1     0     0     1  440.  0.722      1 0.722      0     0     0
10    10     1     0     2     1  566.  3.74       4 3.74       0     0     0
# ℹ 49,990 more rows
# ℹ 3 more variables: cs2 <dbl>, cs <dbl>, csabs <dbl>
…
