Polygenic component of the sensitivity to the environment
…
    fid = rep(1:(n/2), each=2), # family id
    id = rep(1:2, n/2),
    g1 = rbinom(n/2, 2, 0.4) %>% rep(., each=2),
    g2 = rbinom(n/2, 2, 0.4) %>% rep(., each=2),
    g3 = rbinom(n/2, 2, 0.4) %>% rep(., each=2),
    g4 = rbinom(n/2, 2, 0.4) %>% rep(., each=2),
    f = rnorm(n),
    v = rnorm(n, 0, g3),
    y = g1 + f + f * drop(scale(g2)) + v + rnorm(n),
    cc = rbinom(n, 1, plogis(-2 + y)),
    cs = drop(scale(cc))
)
dat

# A tibble: 100,000 × 11
     fid    id    g1    g2    g3    g4       f      v      y    cc     cs
   <int> <int> <int> <int> <int> <int>   <dbl>  <dbl>  <dbl> <int>  <dbl>
 1     1     1     1     0     1     0  0.509   0.822  1.74      0 -0.693
 2     1     2     1     0     1     0 -0.185   0.729  0.201     0 -0.693
 3     2     1     1     0     0     1  0.0292  0      0.840     0 -0.693
 4     2     2     1     0     0     1 -0.480   0      1.20      0 -0.693
 5     3     1     0     1     1     2 -0.629   0.720 -1.10      0 -0.693
 6     3     2     0     1     1     2 -1.54   -1.29  -3.84      0 -0.693
 7     4     1     2     1     1     0  1.52    0.972  4.09      0 -0.693
 8     4     2     2     1     1     0 -0.454   0.914  1.63      1  1.44 
 9     5     1     1     0     0     0 -1.26    0      0.301     0 -0.693
10     5     2     1     0     0     0 -1.82    0      1.26      1  1.44 
# ℹ 99,990 more rows
…
